Gender Aspekte der Data Science
…
🚀 Anfrage an Wikidata API

df_raw = query_wikidata(sparql_query, format = c("tibble"))
df_raw

# A tibble: 46 × 2
   genderLabel             count 
   <chr>                   <chr> 
 1 männlich                246365
 2 weiblich                78703 
 3 nichtbinär              46    
 4 Transfrau               41    
 5 Transmann               10    
 6 neutrales Geschlecht    4     
 7 Intergeschlechtlichkeit 3     
 8 Agender                 3     
 9 Cisfrau                 2     
10 Transfeminin            2     
# ℹ 36 more rows
…
