Gender Aspekte der Data Science
…
  ?person wdt:P21 ?gender.
  
  ?article schema:about ?person;
           schema:isPartOf <https://de.wikipedia.org/>.
  SERVICE wikibase:label { bd:serviceParam wikibase:language "de,en". }
}
ORDER BY ?personLabel
'

🚀 Anfrage an Wikidata API

df_raw = query_wikidata(sparql_query, format = c("tibble"))
df_raw

# A tibble: 634 × 5
   person     personLabel       gender   genderLabel article          
   <chr>      <chr>             <chr>    <chr>       <chr>            
 1 Q132733585 Q132733585        Q6581097 männlich    Raimond_Scheirich
 2 Q132733606 Aaron Valent      Q6581097 männlich    Aaron_Valent     
 3 Q132733543 Achim Köhler      Q6581097 männlich    Achim_K%C3%B6hler
 4 Q132733484 Adam Balten       Q6581097 männlich    Adam_Balten      
 5 Q96096131  Adis Ahmetovic    Q6581097 männlich    Adis_Ahmetovic   
 6 Q27065428  Adrian Grasse     Q6581097 männlich    Adrian_Grasse    
 7 Q132733506 Agnes Conrad      Q6581072 weiblich    Agnes_Conrad     
 8 Q109309    Agnieszka Brugger Q6581072 weiblich    Agnieszka_Brugger
 9 Q122308264 Alaa Alhamwi      Q6581097 männlich    Alaa_Alhamwi     
10 Q1738272   Albert Rupprecht  Q6581097 männlich    Albert_Rupprecht 
# ℹ 624 more rows
…
